{
  "type": "service_account",
  "project_id": "crudapp-13dc7",
  "private_key_id": "2319a3291c24c790200bdbbefdb583268835b7b5",
  "private_key": "-----BEGIN PRIVATE KEY-----\nMIIEvwIBADANBgkqhkiG9w0BAQEFAASCBKkwggSlAgEAAoIBAQDSXDVySR/jfuNp\nw0llLm3k423jaU25Hu0QeM+wxD+au8CmQ9wRJNvpAgddZsBEKFsSkxBMLnfUArQJ\nJf/23jc3GxOfgCrmA1wycBM4wLhUSf3LYbKqx2YlNqRKEt20dKN/2sAj6LuZKlIP\nqKbhYMoGxKmul+O6AOaa27tUeCOJOBrcthnwgaBCEWsy0P8v2EUoTb+/HpzpCZdq\n+R8K16MATspXjvp08Ot/aVj/sk5AOaSYodOXICivTMTMePM6pDP7+f5nScsHu31a\nvuaFDuYC3EjpxLBqxLBcIlWtBI7c8MlAUBPQIT0P7M2LOo2yQ39cnDytB50QO5U3\n5U4XsAtXAgMBAAECggEAGqgjql6uLfpziqtRaYMnhY9Karx6jxW7rdAuusmLqSnX\nVlptZeDEBfQYsdMmVHIWubUC0NyR7mmvSHoqbwKm1ZKr+xTXRXwx2pRi4y4Mzbrt\n8IVqCi59eQQXxT6RyLR/zuEODcmIEvc5cebfIC/55JSsT0XLzlN0kDV9uM0Gl8nW\nR6efFN2jZR4jyAf2E8eNnHs4EI2BTgi3Gpz+eoehlq1PCjClxw9E80F9nB7CyekE\nKeFVbF7IJi/rqKNs9SaCFAZ9OH76Rw9zmkUcdIdJC/w5+ee7CqyigY2NRTC5ioXg\nBb3+hkEjvRmRznWgRmpKWnCxptZGUldxIbAgPFEcqQKBgQDwcbbHH0a1PkcmVBXH\nT/OlSTMcP+ROsCgPcy56MsiC8vep9p9VgPEb+PSVr+WQt8Gx35ZYqkOwWzH8s0wQ\noM2znp+81Dpv9rqZ+pJgUsnKunmv8WG3qGvXOExoNjxH/sQdlO1ULP+wQy5S/ktD\nJZpgOe8aEJhtknNVIqeymvRTvwKBgQDf+DzC9ekn5GtF+CeiEN2Rn7tyxi+L9tzS\nI6Hw9iQs4aNgcwetzHwZM8yvsrzqEL5UoKgpXXsPpCak1l5wb8cU5/ziLOSuBYeD\nYORIdDFm09iqTOStLEsyf0HGmeCSBdwTfGMAnAvilF15V6Ee+KfNot4VSIOt9ZZe\n1726/2rOaQKBgQCHUyjQ1xx/o2Z9/vMm8yuoyhL3AkqnsuNJFsWAxxYtBTw4r3Ir\nuF97I9ncaVwl4BYm2zUN//4KwrjWhb742NgNEOjMaRHetBl/0hQSHGYwMFWOnacm\nq6bOQYRXXrb8ujl8gLY2GwFpHdZzpWWMjBxfrhuRKufvO26n6tJBZo6+lwKBgQCq\nTG6nL6ThmGWZBl/cc0aGfBZj5x4wJr0xa7avKfnHxqobpFuqY1nZL/HrhtTuhVyz\nrJUxHst70S0xGW8lv1h5JQy8TbZ0O/AWjY4HKZKGxX5xv5YBtzRWaTzybf68CYiV\nqHb+96hx2K5ana79hcTSL4z+Ue0OUTbNVu4FSkFEQQKBgQCjSEBR4PpRQLgf/47X\nijA/CegOiIY6yUS4CVTdJakfTgCMEUaAPSLaqD4lE9EdHlLNF04bk2MlnGw+rsjd\nFxkA3+yewyr0lzqDbnvTJtMLSH2zV1GmqRPOEIjPXbNF8bcbIl28rI6UYRWxaL7o\ncfzEQKgPFhpo9LXXfFDLAweGUg==\n-----END PRIVATE KEY-----\n",
  "client_email": "firebase-adminsdk-bfmfn@crudapp-13dc7.iam.gserviceaccount.com",
  "client_id": "111874325667434729321",
  "auth_uri": "https://accounts.google.com/o/oauth2/auth",
  "token_uri": "https://oauth2.googleapis.com/token",
  "auth_provider_x509_cert_url": "https://www.googleapis.com/oauth2/v1/certs",
  "client_x509_cert_url": "https://www.googleapis.com/robot/v1/metadata/x509/firebase-adminsdk-bfmfn%40crudapp-13dc7.iam.gserviceaccount.com"
}
